<svg xmlns="http://www.w3.org/2000/svg" width="1050" height="750" viewBox="0 0 14 10">
<rect width="14" height="10" fill="#002868"/>
<rect width="4" height="4" fill="#c50b1e"/>
<path d="M0,0L4,4 M0,4L4,0" stroke="#fff" stroke-width="0.7"/>
<path d="M0,5H14 M5,0V10" stroke="#facc07" stroke-width="2"/>
</svg>